{
  "db": {
    "name": "db",
    "connector": "memory",
    "file": "data/test.data.json"
  },
  "storage": {
    "name": "storage",
    "connector": "loopback-component-storage",
    "provider": "filesystem",
    "root": "./storage"
  }
}
